{
  "cratespawns": [
    [ -5.0, 0.0, 60.0 ],
    [ 5.0, 0.0, -70.0 ]
  ],

  "enemyspawns": [
    [ 0.0, 0.0, 80.0 ],
    [ 0.0, 0.0, -80.0 ]
  ],

  "barrelspawns": [
    [ -15.0, 0.0, 50.0 ],
    [ -15.0, 0.0, 40.0 ],
    [ -15.0, 0.0, 30.0 ],

    [ 15.0, 0.0, 50.0 ],
    [ 15.0, 0.0, 40.0 ],
    [ 15.0, 0.0, 30.0 ],

    [ -15.0, 0.0, -50.0 ],
    [ -15.0, 0.0, -40.0 ],
    [ -15.0, 0.0, -30.0 ],

    [ 15.0, 0.0, -50.0 ],
    [ 15.0, 0.0, -40.0 ],
    [ 15.0, 0.0, -30.0 ]
  ],

  "cloth": [
    {
      "position": [ -60.0, 20.0, 57.0 ],
      "size": [ 40.0, 10.0 ],
      "planeNormal": [ 0.0, 0.0, -1.0, 0.1 ],
      "force": [ -10.0, 0.0, 5.0 ]
    },
    {
      "position": [ 60.0, 20.0, 57.0 ],
      "size": [ 40.0, 10.0 ],
      "planeNormal": [ 0.0, 0.0, -1.0, 0.1 ],
      "force": [ -10.0, 0.0, 5.0 ]
    }
  ],

  "structures": {
    "structure1": {
      "filepath": "./Resources/Meshes/Structure/wall_pointy.ovm",
      "positions": [
        [ -100.0, 0.0, 65.0 ],
        [ -20.0, 0.0, 65.0 ],
        [ 20.0, 0.0, 65.0 ],
        [ 100.0, 0.0, 65.0 ],

        [ -100.0, 0.0, -65.0 ],
        [ -20.0, 0.0, -65.0 ],
        [ 20.0, 0.0, -65.0 ],
        [ 100.0, 0.0, -65.0 ]
      ]
    },
    "structure2": {
      "filepath": "./Resources/Meshes/Structure/6x2_wall.ovm",
      "positions": [
        [ -60.0, 0.0, 65.0 ],
        [ 60.0, 0.0, 65.0 ],
        [ -60.0, 0.0, -65.0 ],
        [ 60.0, 0.0, -65.0 ]
      ]
    }
  },

  "ground": {
    "filepath": "./Resources/Meshes/Structure/Ground_Gladiator.ovm",
    "position": [ 0.0, 0.0, 0.0 ],
    "playablearea": [ 200.0, 1.0, 150.0 ]
  },
  "playerstart": [ 0.0, 0.0, 0.0 ]
}